…
## 3.1.2

Run `flights` in the code chunk below. The output should match the reading. Note that you can find a nice README/data dictionary/documentation of this dataset by viewing its help documentation `?flights`.


``` r
flights
```

```
## # A tibble: 336,776 × 19
##     year month   day dep_time sched_dep_time dep_delay arr_time sched_arr_time
##    <int> <int> <int>    <int>          <int>     <dbl>    <int>          <int>
##  1  2013     1     1      517            515         2      830            819
##  2  2013     1     1      533            529         4      850            830
##  3  2013     1     1      542            540         2      923            850
##  4  2013     1     1      544            545        -1     1004           1022
##  5  2013     1     1      554            600        -6      812            837
##  6  2013     1     1      554            558        -4      740            728
##  7  2013     1     1      555            600        -5      913            854
##  8  2013     1     1      557            600        -3      709            723
##  9  2013     1     1      557            600        -3      838            846
## 10  2013     1     1      558            600        -2      753            745
## # ℹ 336,766 more rows
## # ℹ 11 more variables: arr_delay <dbl>, carrier <chr>, flight <int>,
## #   tailnum <chr>, origin <chr>, dest <chr>, air_time <dbl>, distance <dbl>,
## #   hour <dbl>, minute <dbl>, time_hour <dttm>
```
…
```
## `summarise()` has grouped output by 'year', 'month'. You can override using the
## `.groups` argument.
```

```
## # A tibble: 365 × 4
## # Groups:   year, month [12]
##     year month   day arr_delay
##    <int> <int> <int>     <dbl>
##  1  2013     1     1     17.8 
##  2  2013     1     2      7   
##  3  2013     1     3     18.3 
##  4  2013     1     4     -3.2 
##  5  2013     1     5     20.2 
##  6  2013     1     6      9.28
##  7  2013     1     7     -7.74
##  8  2013     1     8      7.79
##  9  2013     1     9     18.1 
## 10  2013     1    10      6.68
## # ℹ 355 more rows
```
…
### 3.2.1 filter()

The example filters the data based on month and day. `jan1 <- filter(flights, month == 1, day == 1)`

The double-equals `==`sign implies "is equal to"; in the filter function above, all flights on the first day of January are saved as a new variable `jan1`.

What is happening in the command below?


``` r
filter(flights, month == 1)
```

```
## # A tibble: 27,004 × 19
##     year month   day dep_time sched_dep_time dep_delay arr_time sched_arr_time
##    <int> <int> <int>    <int>          <int>     <dbl>    <int>          <int>
##  1  2013     1     1      517            515         2      830            819
##  2  2013     1     1      533            529         4      850            830
##  3  2013     1     1      542            540         2      923            850
##  4  2013     1     1      544            545        -1     1004           1022
##  5  2013     1     1      554            600        -6      812            837
##  6  2013     1     1      554            558        -4      740            728
##  7  2013     1     1      555            600        -5      913            854
##  8  2013     1     1      557            600        -3      709            723
##  9  2013     1     1      557            600        -3      838            846
## 10  2013     1     1      558            600        -2      753            745
## # ℹ 26,994 more rows
## # ℹ 11 more variables: arr_delay <dbl>, carrier <chr>, flight <int>,
## #   tailnum <chr>, origin <chr>, dest <chr>, air_time <dbl>, distance <dbl>,
## #   hour <dbl>, minute <dbl>, time_hour <dttm>
```
…
```
## [1]  TRUE  TRUE  TRUE FALSE
```

How would you select all flights in May and June?


``` r
flights |> filter(month == 5 | month == 6)
```

```
## # A tibble: 57,039 × 19
##     year month   day dep_time sched_dep_time dep_delay arr_time sched_arr_time
##    <int> <int> <int>    <int>          <int>     <dbl>    <int>          <int>
##  1  2013     5     1        9           1655       434      308           2020
##  2  2013     5     1      451            500        -9      641            640
##  3  2013     5     1      537            540        -3      836            840
##  4  2013     5     1      544            545        -1      818            827
##  5  2013     5     1      548            600       -12      831            854
##  6  2013     5     1      549            600       -11      804            810
##  7  2013     5     1      553            600        -7      700            712
##  8  2013     5     1      553            600        -7      655            701
##  9  2013     5     1      554            600        -6      731            756
## 10  2013     5     1      554            600        -6      707            725
## # ℹ 57,029 more rows
## # ℹ 11 more variables: arr_delay <dbl>, carrier <chr>, flight <int>,
## #   tailnum <chr>, origin <chr>, dest <chr>, air_time <dbl>, distance <dbl>,
## #   hour <dbl>, minute <dbl>, time_hour <dttm>
```
…
```
##  [1]  TRUE  TRUE FALSE FALSE FALSE FALSE FALSE FALSE FALSE FALSE FALSE FALSE
## [13] FALSE FALSE FALSE FALSE FALSE FALSE FALSE FALSE FALSE FALSE FALSE FALSE
## [25] FALSE  TRUE
```

So we could select all flights in May and June using this now. 


``` r
filter(flights, month %in% c(5, 6)) |> tail(n = 100)
```

```
## # A tibble: 100 × 19
##     year month   day dep_time sched_dep_time dep_delay arr_time sched_arr_time
##    <int> <int> <int>    <int>          <int>     <dbl>    <int>          <int>
##  1  2013     6    30     2334           1836       298       50           2015
##  2  2013     6    30     2336           2029       187      231           2359
##  3  2013     6    30     2343           2029       194      205           2303
##  4  2013     6    30     2345           2146       119      229             30
##  5  2013     6    30     2347           2125       142      105           2253
##  6  2013     6    30     2348           2130       138      229             14
##  7  2013     6    30     2354           2245        69       53           2359
##  8  2013     6    30     2354           2245        69      117              1
##  9  2013     6    30     2357           2112       165      223           2359
## 10  2013     6    30     2358           2225        93       49           2330
## # ℹ 90 more rows
## # ℹ 11 more variables: arr_delay <dbl>, carrier <chr>, flight <int>,
## #   tailnum <chr>, origin <chr>, dest <chr>, air_time <dbl>, distance <dbl>,
## #   hour <dbl>, minute <dbl>, time_hour <dttm>
```
…
We covered `NA`s in some of our exercises in previous weeks. Hopefully reading through this section helped reinforce in your mind how `NA`s are handled in R and in the `dplyr::filter` function.


### 3.2.3 Arranging rows

We can arrange rows by a particular columns values using `arrange`. For example with the `flights` dataset we could arrange by departure time. 


``` r
flights |> arrange(dep_time)
```

```
## # A tibble: 336,776 × 19
##     year month   day dep_time sched_dep_time dep_delay arr_time sched_arr_time
##    <int> <int> <int>    <int>          <int>     <dbl>    <int>          <int>
##  1  2013     1    13        1           2249        72      108           2357
##  2  2013     1    31        1           2100       181      124           2225
##  3  2013    11    13        1           2359         2      442            440
##  4  2013    12    16        1           2359         2      447            437
##  5  2013    12    20        1           2359         2      430            440
##  6  2013    12    26        1           2359         2      437            440
##  7  2013    12    30        1           2359         2      441            437
##  8  2013     2    11        1           2100       181      111           2225
##  9  2013     2    24        1           2245        76      121           2354
## 10  2013     3     8        1           2355         6      431            440
## # ℹ 336,766 more rows
## # ℹ 11 more variables: arr_delay <dbl>, carrier <chr>, flight <int>,
## #   tailnum <chr>, origin <chr>, dest <chr>, air_time <dbl>, distance <dbl>,
## #   hour <dbl>, minute <dbl>, time_hour <dttm>
```

By default `arrange` sorts the rows from low to high on the variable you pass. To sort high to low you put a `-` in front of the variable or use `desc(variable)`.


``` r
flights |> arrange(-dep_time)
```

```
## # A tibble: 336,776 × 19
##     year month   day dep_time sched_dep_time dep_delay arr_time sched_arr_time
##    <int> <int> <int>    <int>          <int>     <dbl>    <int>          <int>
##  1  2013    10    30     2400           2359         1      327            337
##  2  2013    11    27     2400           2359         1      515            445
##  3  2013    12     5     2400           2359         1      427            440
##  4  2013    12     9     2400           2359         1      432            440
##  5  2013    12     9     2400           2250        70       59           2356
##  6  2013    12    13     2400           2359         1      432            440
##  7  2013    12    19     2400           2359         1      434            440
##  8  2013    12    29     2400           1700       420      302           2025
##  9  2013     2     7     2400           2359         1      432            436
## 10  2013     2     7     2400           2359         1      443            444
## # ℹ 336,766 more rows
## # ℹ 11 more variables: arr_delay <dbl>, carrier <chr>, flight <int>,
## #   tailnum <chr>, origin <chr>, dest <chr>, air_time <dbl>, distance <dbl>,
## #   hour <dbl>, minute <dbl>, time_hour <dttm>
```

This may seem a little awkward, but it allows you to easily provide multiple variable names for a complex sort. 


``` r
flights |> arrange(desc(dep_time), sched_dep_time)
```

```
## # A tibble: 336,776 × 19
##     year month   day dep_time sched_dep_time dep_delay arr_time sched_arr_time
##    <int> <int> <int>    <int>          <int>     <dbl>    <int>          <int>
##  1  2013    12    29     2400           1700       420      302           2025
##  2  2013     7     7     2400           1950       250      107           2130
##  3  2013     9    12     2400           2000       240      203           2230
##  4  2013     7    28     2400           2059       181      247           2322
##  5  2013     2    11     2400           2135       145      251             35
##  6  2013     7    17     2400           2142       138       54           2259
##  7  2013     6    17     2400           2145       135      102           2315
##  8  2013     7    13     2400           2155       125      225             43
##  9  2013     7    13     2400           2245        75      101           2359
## 10  2013     8    10     2400           2245        75      110              1
## # ℹ 336,766 more rows
## # ℹ 11 more variables: arr_delay <dbl>, carrier <chr>, flight <int>,
## #   tailnum <chr>, origin <chr>, dest <chr>, air_time <dbl>, distance <dbl>,
## #   hour <dbl>, minute <dbl>, time_hour <dttm>
```
…
### 3.3.2 Select
It's not uncommon to get datasets with hundreds or even thousands of variables. In this case, the first challenge is often narrowing in on the variables you're actually interested in. `select()` allows you to rapidly zoom in on a useful subset using operations based on the names of the variables.

`select()` is not terribly useful with the flights data because we only have 19 variables, but you can still get the general idea:


``` r
select(flights, year, month, day)
```

```
## # A tibble: 336,776 × 3
##     year month   day
##    <int> <int> <int>
##  1  2013     1     1
##  2  2013     1     1
##  3  2013     1     1
##  4  2013     1     1
##  5  2013     1     1
##  6  2013     1     1
##  7  2013     1     1
##  8  2013     1     1
##  9  2013     1     1
## 10  2013     1     1
## # ℹ 336,766 more rows
```
…
