…
``` r
root_growth_inh_aov.HSD <- broom::tidy(TukeyHSD(root_growth_inh_aov))
root_growth_inh_aov.HSD[which(root_growth_inh_aov.HSD$adj.p.value < 0.05),]
```

```
## # A tibble: 121 × 7
##    term              contrast null.value estimate conf.low conf.high adj.p.value
##    <chr>             <chr>         <dbl>    <dbl>    <dbl>     <dbl>       <dbl>
##  1 genotype          tir1-1-…          0     6.55     3.47      9.62    1.04e- 7
##  2 genotype          tir1-10…          0     7.57     3.42     11.7     7.93e- 6
##  3 genotype          tir1afb…          0     6.41     1.11     11.7     8.76e- 3
##  4 fac_treat         20-0              0   -36.5    -40.2     -32.9     2.81e-11
##  5 fac_treat         100-0             0   -75.8    -78.9     -72.7     2.81e-11
##  6 fac_treat         500-0             0   -93.9    -97.4     -90.5     2.81e-11
##  7 fac_treat         100-20            0   -39.3    -42.9     -35.6     2.81e-11
##  8 fac_treat         500-20            0   -57.4    -61.4     -53.4     2.81e-11
##  9 fac_treat         500-100           0   -18.2    -21.6     -14.7     2.81e-11
## 10 genotype:fac_tre… tir1-10…          0    15.4      2.19     28.6     6.04e- 3
## # ℹ 111 more rows
```
…
