4 Data Wrangling | Data Analysis and Numerical Methods for Biological Systems Engineers
…
4.4 3.1.2

Run flights in the code chunk below. The output should match the reading. Note that you can find a nice README/data dictionary/documentation of this dataset by viewing its help documentation ?flights.

flights

## # A tibble: 336,776 × 19
##     year month   day dep_time sched_dep_time dep_delay arr_time sched_arr_time
##    <int> <int> <int>    <int>          <int>     <dbl>    <int>          <int>
##  1  2013     1     1      517            515         2      830            819
##  2  2013     1     1      533            529         4      850            830
##  3  2013     1     1      542            540         2      923            850
##  4  2013     1     1      544            545        -1     1004           1022
##  5  2013     1     1      554            600        -6      812            837
##  6  2013     1     1      554            558        -4      740            728
##  7  2013     1     1      555            600        -5      913            854
##  8  2013     1     1      557            600        -3      709            723
##  9  2013     1     1      557            600        -3      838            846
## 10  2013     1     1      558            600        -2      753            745
## # ℹ 336,766 more rows
## # ℹ 11 more variables: arr_delay <dbl>, carrier <chr>, flight <int>,
## #   tailnum <chr>, origin <chr>, dest <chr>, air_time <dbl>, distance <dbl>,
## #   hour <dbl>, minute <dbl>, time_hour <dttm>
…
The output is always a new data frame.

Direct from R4DS: “Because each verb does one thing well, solving complex problems will usually require combining multiple verbs, and we’ll do so with the pipe, |>. We’ll discuss the pipe more in Section 3.4, but in brief, the pipe takes the thing on its left and passes it along to the function on its right so that x |> f(y) is equivalent to f(x, y), and x |> f(y) |> g(z) is equivalent to g(f(x, y), z). The easiest way to pronounce the pipe is “then”. That makes it possible to get a sense of the following code even though you haven’t yet learned the details:

flights |>
  filter(dest == "IAH") |> 
  group_by(year, month, day) |> 
  summarize(
    arr_delay = mean(arr_delay, na.rm = TRUE)
  )

## `summarise()` has grouped output by 'year', 'month'. You can override using the
## `.groups` argument.

## # A tibble: 365 × 4
## # Groups:   year, month [12]
##     year month   day arr_delay
##    <int> <int> <int>     <dbl>
##  1  2013     1     1     17.8 
##  2  2013     1     2      7   
##  3  2013     1     3     18.3 
##  4  2013     1     4     -3.2 
##  5  2013     1     5     20.2 
##  6  2013     1     6      9.28
##  7  2013     1     7     -7.74
##  8  2013     1     8      7.79
##  9  2013     1     9     18.1 
## 10  2013     1    10      6.68
## # ℹ 355 more rows
…
