Data Wrangling Examples | Data Analysis and Numerical Methods for Biological Systems Engineers
…
3.7.2 Arrange

Use desc() to re-order by a column in descending order:

flights |> arrange(-day, desc(month))

## # A tibble: 336,776 × 19
##     year month   day dep_time sched_dep_time dep_delay arr_time sched_arr_time
##    <int> <int> <int>    <int>          <int>     <dbl>    <int>          <int>
##  1  2013    12    31       13           2359        14      439            437
##  2  2013    12    31       18           2359        19      449            444
##  3  2013    12    31       26           2245       101      129           2353
##  4  2013    12    31      459            500        -1      655            651
##  5  2013    12    31      514            515        -1      814            812
##  6  2013    12    31      549            551        -2      925            900
##  7  2013    12    31      550            600       -10      725            745
##  8  2013    12    31      552            600        -8      811            826
##  9  2013    12    31      553            600        -7      741            754
## 10  2013    12    31      554            550         4     1024           1027
## # ℹ 336,766 more rows
## # ℹ 11 more variables: arr_delay <dbl>, carrier <chr>, flight <int>,
## #   tailnum <chr>, origin <chr>, dest <chr>, air_time <dbl>, distance <dbl>,
## #   hour <dbl>, minute <dbl>, time_hour <dttm>

Sort flights to find the most delayed flights. Find the flights that left earliest.

Sort flights to find the fastest (highest speed) flights. Here you are creating a metric by using the existing data in the dataframe to calculate speed.

Which flights traveled the farthest? Which traveled the shortest?

(flights 1632 and 51)

arrange(flights, -distance)

## # A tibble: 336,776 × 19
##     year month   day dep_time sched_dep_time dep_delay arr_time sched_arr_time
##    <int> <int> <int>    <int>          <int>     <dbl>    <int>          <int>
##  1  2013     1     1      857            900        -3     1516           1530
##  2  2013     1     2      909            900         9     1525           1530
##  3  2013     1     3      914            900        14     1504           1530
##  4  2013     1     4      900            900         0     1516           1530
##  5  2013     1     5      858            900        -2     1519           1530
##  6  2013     1     6     1019            900        79     1558           1530
##  7  2013     1     7     1042            900       102     1620           1530
##  8  2013     1     8      901            900         1     1504           1530
##  9  2013     1     9      641            900      1301     1242           1530
## 10  2013     1    10      859            900        -1     1449           1530
## # ℹ 336,766 more rows
## # ℹ 11 more variables: arr_delay <dbl>, carrier <chr>, flight <int>,
## #   tailnum <chr>, origin <chr>, dest <chr>, air_time <dbl>, distance <dbl>,
## #   hour <dbl>, minute <dbl>, time_hour <dttm>

3.7.3 Mutate - adds a new column

flights |> mutate(check_arr_delay = sched_arr_time - arr_time, 
                  check_dep_delay = sched_dep_time - dep_time)

## # A tibble: 336,776 × 21
##     year month   day dep_time sched_dep_time dep_delay arr_time sched_arr_time
##    <int> <int> <int>    <int>          <int>     <dbl>    <int>          <int>
##  1  2013     1     1      517            515         2      830            819
##  2  2013     1     1      533            529         4      850            830
##  3  2013     1     1      542            540         2      923            850
##  4  2013     1     1      544            545        -1     1004           1022
##  5  2013     1     1      554            600        -6      812            837
##  6  2013     1     1      554            558        -4      740            728
##  7  2013     1     1      555            600        -5      913            854
##  8  2013     1     1      557            600        -3      709            723
##  9  2013     1     1      557            600        -3      838            846
## 10  2013     1     1      558            600        -2      753            745
## # ℹ 336,766 more rows
## # ℹ 13 more variables: arr_delay <dbl>, carrier <chr>, flight <int>,
## #   tailnum <chr>, origin <chr>, dest <chr>, air_time <dbl>, distance <dbl>,
## #   hour <dbl>, minute <dbl>, time_hour <dttm>, check_arr_delay <int>,
## #   check_dep_delay <int>

3.7.4 Select

flights |> mutate(check_arr_delay = sched_arr_time - arr_time, 
                  check_dep_delay = sched_dep_time - dep_time) |>
  select(check_arr_delay, check_dep_delay)

## # A tibble: 336,776 × 2
##    check_arr_delay check_dep_delay
##              <int>           <int>
##  1             -11              -2
##  2             -20              -4
##  3             -73              -2
##  4              18               1
##  5              25              46
##  6             -12               4
##  7             -59              45
##  8              14              43
##  9               8              43
## 10              -8              42
## # ℹ 336,766 more rows
…
We could also figure out which carrier had the longest and shortest delay in December, if we were trying to plan a timely winter break flight.

carrier_delay <- # I like to use a new line here so that I can easily comment out this assignment line while building my pipe
  flights |>
  arrange(-distance) |>
  filter(month == 12) |>
  select(flight, dep_delay, carrier)

carrier_delay

## # A tibble: 28,135 × 3
##    flight dep_delay carrier
##     <int>     <dbl> <chr>  
##  1     51        -2 HA     
##  2     51       -10 HA     
##  3     51         3 HA     
##  4     51       -10 HA     
##  5     51        -6 HA     
##  6     51        -3 HA     
##  7     51         5 HA     
##  8     51        -2 HA     
##  9     51         0 HA     
## 10     51        -1 HA     
## # ℹ 28,125 more rows
…
