3 3.2 Rows | Data Wrangling Examples
…
            Data Wrangling Examples

3 3.2 Rows

3.1 3.2.1 filter()

The example filters the data based on month and day. jan1 <- filter(flights, month == 1, day == 1)

The double-equals ==sign implies “is equal to”; in the filter function above, all flights on the first day of January are saved as a new variable jan1.

What is happening in the command below?

filter(flights, month == 1)

## # A tibble: 27,004 × 19
##     year month   day dep_time sched_dep_time dep_delay arr_time sched_arr_time
##    <int> <int> <int>    <int>          <int>     <dbl>    <int>          <int>
##  1  2013     1     1      517            515         2      830            819
##  2  2013     1     1      533            529         4      850            830
##  3  2013     1     1      542            540         2      923            850
##  4  2013     1     1      544            545        -1     1004           1022
##  5  2013     1     1      554            600        -6      812            837
##  6  2013     1     1      554            558        -4      740            728
##  7  2013     1     1      555            600        -5      913            854
##  8  2013     1     1      557            600        -3      709            723
##  9  2013     1     1      557            600        -3      838            846
## 10  2013     1     1      558            600        -2      753            745
## # ℹ 26,994 more rows
## # ℹ 11 more variables: arr_delay <dbl>, carrier <chr>, flight <int>,
## #   tailnum <chr>, origin <chr>, dest <chr>, air_time <dbl>, distance <dbl>,
## #   hour <dbl>, minute <dbl>, time_hour <dttm>
…
Complete set of boolean operations. x is the left-hand circle, y is the right-hand circle, and the shaded region show which parts each operator selects.

x

x <- c(TRUE, TRUE, FALSE, FALSE)
y <- c(TRUE, FALSE, TRUE, FALSE)
x | y

## [1]  TRUE  TRUE  TRUE FALSE

How would you select all flights in May and June?

flights |> filter(month == 5 | month == 6)

## # A tibble: 57,039 × 19
##     year month   day dep_time sched_dep_time dep_delay arr_time sched_arr_time
##    <int> <int> <int>    <int>          <int>     <dbl>    <int>          <int>
##  1  2013     5     1        9           1655       434      308           2020
##  2  2013     5     1      451            500        -9      641            640
##  3  2013     5     1      537            540        -3      836            840
##  4  2013     5     1      544            545        -1      818            827
##  5  2013     5     1      548            600       -12      831            854
##  6  2013     5     1      549            600       -11      804            810
##  7  2013     5     1      553            600        -7      700            712
##  8  2013     5     1      553            600        -7      655            701
##  9  2013     5     1      554            600        -6      731            756
## 10  2013     5     1      554            600        -6      707            725
## # ℹ 57,029 more rows
## # ℹ 11 more variables: arr_delay <dbl>, carrier <chr>, flight <int>,
## #   tailnum <chr>, origin <chr>, dest <chr>, air_time <dbl>, distance <dbl>,
## #   hour <dbl>, minute <dbl>, time_hour <dttm>
…
R also has another nifty logical operator %in%, which searches for a matches of one vector in another and return true for any matching values. So for example:

# letters is simply the lowercase alphabet
letters %in% c("a", "b", "z")

##  [1]  TRUE  TRUE FALSE FALSE FALSE FALSE FALSE FALSE FALSE FALSE FALSE FALSE
## [13] FALSE FALSE FALSE FALSE FALSE FALSE FALSE FALSE FALSE FALSE FALSE FALSE
## [25] FALSE  TRUE

So we could select all flights in May and June using this now.

filter(flights, month %in% c(5, 6)) |> tail(n = 100)

## # A tibble: 100 × 19
##     year month   day dep_time sched_dep_time dep_delay arr_time sched_arr_time
##    <int> <int> <int>    <int>          <int>     <dbl>    <int>          <int>
##  1  2013     6    30     2334           1836       298       50           2015
##  2  2013     6    30     2336           2029       187      231           2359
##  3  2013     6    30     2343           2029       194      205           2303
##  4  2013     6    30     2345           2146       119      229             30
##  5  2013     6    30     2347           2125       142      105           2253
##  6  2013     6    30     2348           2130       138      229             14
##  7  2013     6    30     2354           2245        69       53           2359
##  8  2013     6    30     2354           2245        69      117              1
##  9  2013     6    30     2357           2112       165      223           2359
## 10  2013     6    30     2358           2225        93       49           2330
## # ℹ 90 more rows
## # ℹ 11 more variables: arr_delay <dbl>, carrier <chr>, flight <int>,
## #   tailnum <chr>, origin <chr>, dest <chr>, air_time <dbl>, distance <dbl>,
## #   hour <dbl>, minute <dbl>, time_hour <dttm>

3.1.2 Missing values

We covered NAs in some of our exercises in previous weeks. Hopefully reading through this section helped reinforce in your mind how NAs are handled in R and in the dplyr::filter function.

3.2 3.2.3 Arranging rows

We can arrange rows by a particular columns values using arrange. For example with the flights dataset we could arrange by departure time.

flights |> arrange(dep_time)

## # A tibble: 336,776 × 19
##     year month   day dep_time sched_dep_time dep_delay arr_time sched_arr_time
##    <int> <int> <int>    <int>          <int>     <dbl>    <int>          <int>
##  1  2013     1    13        1           2249        72      108           2357
##  2  2013     1    31        1           2100       181      124           2225
##  3  2013    11    13        1           2359         2      442            440
##  4  2013    12    16        1           2359         2      447            437
##  5  2013    12    20        1           2359         2      430            440
##  6  2013    12    26        1           2359         2      437            440
##  7  2013    12    30        1           2359         2      441            437
##  8  2013     2    11        1           2100       181      111           2225
##  9  2013     2    24        1           2245        76      121           2354
## 10  2013     3     8        1           2355         6      431            440
## # ℹ 336,766 more rows
## # ℹ 11 more variables: arr_delay <dbl>, carrier <chr>, flight <int>,
## #   tailnum <chr>, origin <chr>, dest <chr>, air_time <dbl>, distance <dbl>,
## #   hour <dbl>, minute <dbl>, time_hour <dttm>

By default arrange sorts the rows from low to high on the variable you pass. To sort high to low you put a - in front of the variable or use desc(variable).

flights |> arrange(-dep_time)

## # A tibble: 336,776 × 19
##     year month   day dep_time sched_dep_time dep_delay arr_time sched_arr_time
##    <int> <int> <int>    <int>          <int>     <dbl>    <int>          <int>
##  1  2013    10    30     2400           2359         1      327            337
##  2  2013    11    27     2400           2359         1      515            445
##  3  2013    12     5     2400           2359         1      427            440
##  4  2013    12     9     2400           2359         1      432            440
##  5  2013    12     9     2400           2250        70       59           2356
##  6  2013    12    13     2400           2359         1      432            440
##  7  2013    12    19     2400           2359         1      434            440
##  8  2013    12    29     2400           1700       420      302           2025
##  9  2013     2     7     2400           2359         1      432            436
## 10  2013     2     7     2400           2359         1      443            444
## # ℹ 336,766 more rows
## # ℹ 11 more variables: arr_delay <dbl>, carrier <chr>, flight <int>,
## #   tailnum <chr>, origin <chr>, dest <chr>, air_time <dbl>, distance <dbl>,
## #   hour <dbl>, minute <dbl>, time_hour <dttm>

This may seem a little awkward, but it allows you to easily provide multiple variable names for a complex sort.

flights |> arrange(desc(dep_time), sched_dep_time)

## # A tibble: 336,776 × 19
##     year month   day dep_time sched_dep_time dep_delay arr_time sched_arr_time
##    <int> <int> <int>    <int>          <int>     <dbl>    <int>          <int>
##  1  2013    12    29     2400           1700       420      302           2025
##  2  2013     7     7     2400           1950       250      107           2130
##  3  2013     9    12     2400           2000       240      203           2230
##  4  2013     7    28     2400           2059       181      247           2322
##  5  2013     2    11     2400           2135       145      251             35
##  6  2013     7    17     2400           2142       138       54           2259
##  7  2013     6    17     2400           2145       135      102           2315
##  8  2013     7    13     2400           2155       125      225             43
##  9  2013     7    13     2400           2245        75      101           2359
## 10  2013     8    10     2400           2245        75      110              1
## # ℹ 336,766 more rows
## # ℹ 11 more variables: arr_delay <dbl>, carrier <chr>, flight <int>,
## #   tailnum <chr>, origin <chr>, dest <chr>, air_time <dbl>, distance <dbl>,
## #   hour <dbl>, minute <dbl>, time_hour <dttm>
…
#add a speed variable

Next, pay attention to the Useful transformation functions and the modular arithmetic section to obtain hour and minutes from the departure data. Try for yourself below. This is pretty cool and can be useful.

3.5 3.3.2 Select

It’s not uncommon to get datasets with hundreds or even thousands of variables. In this case, the first challenge is often narrowing in on the variables you’re actually interested in. select() allows you to rapidly zoom in on a useful subset using operations based on the names of the variables.

select() is not terribly useful with the flights data because we only have 19 variables, but you can still get the general idea:

select(flights, year, month, day)

## # A tibble: 336,776 × 3
##     year month   day
##    <int> <int> <int>
##  1  2013     1     1
##  2  2013     1     1
##  3  2013     1     1
##  4  2013     1     1
##  5  2013     1     1
##  6  2013     1     1
##  7  2013     1     1
##  8  2013     1     1
##  9  2013     1     1
## 10  2013     1     1
## # ℹ 336,766 more rows
…
1.7 Departed between midnight and 6am (inclusive) (9,373 flights)

Another useful dplyr filtering helper is between(). What does it do? Can you use it to simplify the code needed to answer the 1.7? (hint: look up bwetween in the help menu. You’ll see the required syntax, where x = vector, and left and right at the boundary values. You will also need to add an OR statement to include departure times at exactly 2400 since the dataframe has departures at both 0 and 2400)

How many flights have a missing dep_time? What other variables are missing? What might these rows represent?

#solutions: 1.1 k <- filter(flights,(arr_delay > 120)) 1.2 k <- filter(flights,dest == “IAH”|dest==“HOU”) 1.3 k <- filter(flights,carrier==“DL”|carrier==“UA”|carrier==“AA”) 1.4 k <- filter(flights,month==7 | month==8 | month==9) 1.5 k <- filter(flights,arr_delay >120 & dep_delay == 0) 1.6 filter(flights,dep_delay >60 & arr_delay <(dep_delay-30))) 1.7 k <- filter(flights,dep_time==2400 | (dep_time<0601)) 2. m <- filter(flights,between(dep_time,0,0600)|dep_time==2400) 3. y <- filter(flights, is.na(dep_time))

3.9 Arrange

Use desc() to re-order by a column in descending order:

flights |> arrange(-day, desc(month))

## # A tibble: 336,776 × 19
##     year month   day dep_time sched_dep_time dep_delay arr_time sched_arr_time
##    <int> <int> <int>    <int>          <int>     <dbl>    <int>          <int>
##  1  2013    12    31       13           2359        14      439            437
##  2  2013    12    31       18           2359        19      449            444
##  3  2013    12    31       26           2245       101      129           2353
##  4  2013    12    31      459            500        -1      655            651
##  5  2013    12    31      514            515        -1      814            812
##  6  2013    12    31      549            551        -2      925            900
##  7  2013    12    31      550            600       -10      725            745
##  8  2013    12    31      552            600        -8      811            826
##  9  2013    12    31      553            600        -7      741            754
## 10  2013    12    31      554            550         4     1024           1027
## # ℹ 336,766 more rows
## # ℹ 11 more variables: arr_delay <dbl>, carrier <chr>, flight <int>,
## #   tailnum <chr>, origin <chr>, dest <chr>, air_time <dbl>, distance <dbl>,
## #   hour <dbl>, minute <dbl>, time_hour <dttm>

Sort flights to find the most delayed flights. Find the flights that left earliest.

Sort flights to find the fastest (highest speed) flights. Here you are creating a metric by using the existing data in the dataframe to calculate speed.

Which flights traveled the farthest? Which traveled the shortest?

(flights 1632 and 51)

arrange(flights, -distance)

## # A tibble: 336,776 × 19
##     year month   day dep_time sched_dep_time dep_delay arr_time sched_arr_time
##    <int> <int> <int>    <int>          <int>     <dbl>    <int>          <int>
##  1  2013     1     1      857            900        -3     1516           1530
##  2  2013     1     2      909            900         9     1525           1530
##  3  2013     1     3      914            900        14     1504           1530
##  4  2013     1     4      900            900         0     1516           1530
##  5  2013     1     5      858            900        -2     1519           1530
##  6  2013     1     6     1019            900        79     1558           1530
##  7  2013     1     7     1042            900       102     1620           1530
##  8  2013     1     8      901            900         1     1504           1530
##  9  2013     1     9      641            900      1301     1242           1530
## 10  2013     1    10      859            900        -1     1449           1530
## # ℹ 336,766 more rows
## # ℹ 11 more variables: arr_delay <dbl>, carrier <chr>, flight <int>,
## #   tailnum <chr>, origin <chr>, dest <chr>, air_time <dbl>, distance <dbl>,
## #   hour <dbl>, minute <dbl>, time_hour <dttm>

3.10 Mutate - adds a new column

3.11 Select

=======

flights |> mutate(check_arr_delay = sched_arr_time - arr_time, 
                  check_dep_delay = sched_dep_time - dep_time)

## # A tibble: 336,776 × 21
##     year month   day dep_time sched_dep_time dep_delay arr_time sched_arr_time
##    <int> <int> <int>    <int>          <int>     <dbl>    <int>          <int>
##  1  2013     1     1      517            515         2      830            819
##  2  2013     1     1      533            529         4      850            830
##  3  2013     1     1      542            540         2      923            850
##  4  2013     1     1      544            545        -1     1004           1022
##  5  2013     1     1      554            600        -6      812            837
##  6  2013     1     1      554            558        -4      740            728
##  7  2013     1     1      555            600        -5      913            854
##  8  2013     1     1      557            600        -3      709            723
##  9  2013     1     1      557            600        -3      838            846
## 10  2013     1     1      558            600        -2      753            745
## # ℹ 336,766 more rows
## # ℹ 13 more variables: arr_delay <dbl>, carrier <chr>, flight <int>,
## #   tailnum <chr>, origin <chr>, dest <chr>, air_time <dbl>, distance <dbl>,
## #   hour <dbl>, minute <dbl>, time_hour <dttm>, check_arr_delay <int>,
## #   check_dep_delay <int>

3.12 Select

flights |> mutate(check_arr_delay = sched_arr_time - arr_time, 
                  check_dep_delay = sched_dep_time - dep_time) |>
  select(check_arr_delay, check_dep_delay)

## # A tibble: 336,776 × 2
##    check_arr_delay check_dep_delay
##              <int>           <int>
##  1             -11              -2
##  2             -20              -4
##  3             -73              -2
##  4              18               1
##  5              25              46
##  6             -12               4
##  7             -59              45
##  8              14              43
##  9               8              43
## 10              -8              42
## # ℹ 336,766 more rows
…
We could also figure out which carrier had the longest and shortest delay in December, if we were trying to plan a timely winter break flight.

carrier_delay <- # I like to use a new line here so that I can easily comment out this assignment line while building my pipe
  flights |>
  arrange(-distance) |>
  filter(month == 12) |>
  select(flight, dep_delay, carrier)

carrier_delay

## # A tibble: 28,135 × 3
##    flight dep_delay carrier
##     <int>     <dbl> <chr>  
##  1     51        -2 HA     
##  2     51       -10 HA     
##  3     51         3 HA     
##  4     51       -10 HA     
##  5     51        -6 HA     
##  6     51        -3 HA     
##  7     51         5 HA     
##  8     51        -2 HA     
##  9     51         0 HA     
## 10     51        -1 HA     
## # ℹ 28,125 more rows
…
