2 The R Language and Tidy Data | Data Analysis and Numerical Methods for Biological Systems Engineers
…
library(readr) 
read_csv("data/Drought_paneldata.csv")

## Rows: 137 Columns: 12
## ── Column specification ────────────────────────────────────────────────────────
## Delimiter: ","
## chr  (2): Hazard, unique_id
## dbl  (6): CountyFP, DurationDays, CropDmg, avg_tmax, avg_tmin, avg_ppt
## lgl  (1): duplicate
## date (3): Time_fornow_enddate, StartDate, EndDate
## 
## ℹ Use `spec()` to retrieve the full column specification for this data.
## ℹ Specify the column types or set `show_col_types = FALSE` to quiet this message.

## # A tibble: 137 × 12
##    CountyFP Time_fornow_enddate StartDate  EndDate    DurationDays Hazard
##       <dbl> <date>              <date>     <date>            <dbl> <chr> 
##  1    10003 2016-09-10          2016-09-10 2016-09-10            1 Heat  
##  2    10003 2016-08-20          2016-08-20 2016-08-20            1 Heat  
##  3    10005 2014-06-19          2014-06-18 2014-06-19            2 Heat  
##  4    10003 2013-07-20          2013-07-15 2013-07-20            6 Heat  
##  5    10003 2011-06-09          2011-06-08 2011-06-09            2 Heat  
##  6    10001 2011-06-09          2011-06-09 2011-06-09            1 Heat  
##  7    24011 2011-06-09          2011-06-09 2011-06-09            1 Heat  
##  8    24015 2010-06-24          2010-06-23 2010-06-24            2 Heat  
##  9    10001 2006-08-03          2006-08-01 2006-08-03            3 Heat  
## 10    10003 2006-08-03          2006-08-01 2006-08-03            3 Heat  
## # ℹ 127 more rows
## # ℹ 6 more variables: CropDmg <dbl>, avg_tmax <dbl>, avg_tmin <dbl>,
## #   avg_ppt <dbl>, unique_id <chr>, duplicate <lgl>
…
## Rows: 137 Columns: 12
## ── Column specification ────────────────────────────────────────────────────────
## Delimiter: ","
## chr  (2): Hazard, unique_id
## dbl  (6): CountyFP, DurationDays, CropDmg, avg_tmax, avg_tmin, avg_ppt
## lgl  (1): duplicate
## date (3): Time_fornow_enddate, StartDate, EndDate
## 
## ℹ Use `spec()` to retrieve the full column specification for this data.
## ℹ Specify the column types or set `show_col_types = FALSE` to quiet this message.

Duoght_rec

## # A tibble: 137 × 12
##    CountyFP Time_fornow_enddate StartDate  EndDate    DurationDays Hazard
##       <dbl> <date>              <date>     <date>            <dbl> <chr> 
##  1    10003 2016-09-10          2016-09-10 2016-09-10            1 Heat  
##  2    10003 2016-08-20          2016-08-20 2016-08-20            1 Heat  
##  3    10005 2014-06-19          2014-06-18 2014-06-19            2 Heat  
##  4    10003 2013-07-20          2013-07-15 2013-07-20            6 Heat  
##  5    10003 2011-06-09          2011-06-08 2011-06-09            2 Heat  
##  6    10001 2011-06-09          2011-06-09 2011-06-09            1 Heat  
##  7    24011 2011-06-09          2011-06-09 2011-06-09            1 Heat  
##  8    24015 2010-06-24          2010-06-23 2010-06-24            2 Heat  
##  9    10001 2006-08-03          2006-08-01 2006-08-03            3 Heat  
## 10    10003 2006-08-03          2006-08-01 2006-08-03            3 Heat  
## # ℹ 127 more rows
## # ℹ 6 more variables: CropDmg <dbl>, avg_tmax <dbl>, avg_tmin <dbl>,
## #   avg_ppt <dbl>, unique_id <chr>, duplicate <lgl>
…
library(readr) 
read_delim("data/Drought_paneldatatx.txt", delim = ",")

## Rows: 137 Columns: 12
## ── Column specification ────────────────────────────────────────────────────────
## Delimiter: ","
## chr (5): Time_fornow_enddate, StartDate, EndDate, Hazard, unique_id
## dbl (6): CountyFP, DurationDays, CropDmg, avg_tmax, avg_tmin, avg_ppt
## lgl (1): duplicate
## 
## ℹ Use `spec()` to retrieve the full column specification for this data.
## ℹ Specify the column types or set `show_col_types = FALSE` to quiet this message.

## # A tibble: 137 × 12
##    CountyFP Time_fornow_enddate StartDate EndDate   DurationDays Hazard CropDmg
##       <dbl> <chr>               <chr>     <chr>            <dbl> <chr>    <dbl>
##  1    10003 9/10/2016           9/10/2016 9/10/2016            1 Heat         0
##  2    10003 8/20/2016           8/20/2016 8/20/2016            1 Heat         0
##  3    10005 6/19/2014           6/18/2014 6/19/2014            2 Heat         0
##  4    10003 7/20/2013           7/15/2013 7/20/2013            6 Heat         0
##  5    10003 6/9/2011            6/8/2011  6/9/2011             2 Heat         0
##  6    10001 6/9/2011            6/9/2011  6/9/2011             1 Heat         0
##  7    24011 6/9/2011            6/9/2011  6/9/2011             1 Heat         0
##  8    24015 6/24/2010           6/23/2010 6/24/2010            2 Heat         0
##  9    10001 8/3/2006            8/1/2006  8/3/2006             3 Heat         0
## 10    10003 8/3/2006            8/1/2006  8/3/2006             3 Heat         0
## # ℹ 127 more rows
## # ℹ 5 more variables: avg_tmax <dbl>, avg_tmin <dbl>, avg_ppt <dbl>,
## #   unique_id <chr>, duplicate <lgl>
…
Step 4 - Save the output to an object, so you can access it later.

xl_table <- read_excel("my/file.xlsx", sheet = "Sheet_B")

2.6.5.1 Example

We want to read in an hazards dataset which is a Excel file containing financial agricultural loss records and associated weather conditions for three types of climatic hazards. Hazard column defines the hazard type (drought, storm, heat). We have saved the dataset on cloud at /data/hazards.xlsx.

We begin by loading the readxl package which contains read_excel(). Next, we pass read_excel() the filepath for our Excel file in order to read in the dataset. The file is in our working directory, therefore we do not need the entire filepath. We only need the portion that goes from our working directory to the file. The output looks like this:

library(readxl) 
read_excel("data/hazards.xlsx")

## # A tibble: 1,321 × 14
##    Date                County monthly.ppt max.daily.ppt rain.shortage
##    <dttm>               <dbl>       <dbl>         <dbl>         <dbl>
##  1 1989-07-01 00:00:00  24045        7.93         3.75           3.29
##  2 1990-06-01 00:00:00  24045        1.34         0.823          3.83
##  3 1990-07-01 00:00:00  10003        4.29         1.31           1.90
##  4 1990-07-01 00:00:00  24011        4.96         0.902          1.90
##  5 1990-07-01 00:00:00  24019        4.24         0.919          1.65
##  6 1990-07-01 00:00:00  24045        4.15         0.969          1.52
##  7 1990-08-01 00:00:00  24015        7.53         1.49           1.65
##  8 1990-08-01 00:00:00  10001        5.71         0.811          1.10
##  9 1990-09-01 00:00:00  24045        1.82         0.705          3.03
## 10 1990-10-01 00:00:00  24045        2.30         0.927          3.71
## # ℹ 1,311 more rows
## # ℹ 9 more variables: max.5.day.ppt <dbl>, monthly.tmin <dbl>,
## #   monthly.tmax <dbl>, ndays.more.30tmax <dbl>, Hazard <chr>, TotalLoss <dbl>,
## #   TotalLoss_drought <dbl>, TotalLoss_heat <dbl>, TotalLoss_storm <dbl>

Looking at the “Hazard” column of the data frame, we realize read_excel() automatically read in the first sheet of the file. We are looking for data on storm hazard events, not drought. However, we cannot remember what the sheet was named. We can call readxl::excel_sheets() on the filepath to see the names of the sheets in the “hazards” file.

excel_sheets(path = "data/hazards.xlsx")

## [1] "drought" "storm"   "heat"

Now we can see that we wanted to read in Sheet 2 from the file. We can do this by specifying the sheet argument in read_excel().

read_excel(path = "data/hazards.xlsx", sheet = 2)

## # A tibble: 1,609 × 14
##    Date                County monthly.ppt max.daily.ppt rain.shortage
##    <dttm>               <dbl>       <dbl>         <dbl>         <dbl>
##  1 1981-06-01 00:00:00  24015        4.21         0.826          1.23
##  2 1982-05-01 00:00:00  24015        3.67         2.02           4.06
##  3 1983-04-01 00:00:00  24019        7.03         2.21           2.33
##  4 1983-07-01 00:00:00  24047        1.94         0.915          5.32
##  5 1983-08-01 00:00:00  24015        2.00         0.992          6   
##  6 1984-03-01 00:00:00  51001        6.85         1.77           1.87
##  7 1984-05-01 00:00:00  10005        7.64         2.60           3.81
##  8 1985-09-01 00:00:00  51001        5.73         4.65           4.53
##  9 1988-05-01 00:00:00  10003        6.03         2.12           1.68
## 10 1989-03-01 00:00:00  10003        4.57         1.06           3.23
## # ℹ 1,599 more rows
## # ℹ 9 more variables: max.5.day.ppt <dbl>, monthly.tmin <dbl>,
## #   monthly.tmax <dbl>, ndays.more.30tmax <dbl>, Hazard <chr>, TotalLoss <dbl>,
## #   TotalLoss_drought <dbl>, TotalLoss_heat <dbl>, TotalLoss_storm <dbl>

Lastly, we assign the earthquake data frame read in by read_excel() to an object so we can access it later.

storm <- read_excel(path = "data/hazards.xlsx", sheet = 2)
storm

## # A tibble: 1,609 × 14
##    Date                County monthly.ppt max.daily.ppt rain.shortage
##    <dttm>               <dbl>       <dbl>         <dbl>         <dbl>
##  1 1981-06-01 00:00:00  24015        4.21         0.826          1.23
##  2 1982-05-01 00:00:00  24015        3.67         2.02           4.06
##  3 1983-04-01 00:00:00  24019        7.03         2.21           2.33
##  4 1983-07-01 00:00:00  24047        1.94         0.915          5.32
##  5 1983-08-01 00:00:00  24015        2.00         0.992          6   
##  6 1984-03-01 00:00:00  51001        6.85         1.77           1.87
##  7 1984-05-01 00:00:00  10005        7.64         2.60           3.81
##  8 1985-09-01 00:00:00  51001        5.73         4.65           4.53
##  9 1988-05-01 00:00:00  10003        6.03         2.12           1.68
## 10 1989-03-01 00:00:00  10003        4.57         1.06           3.23
## # ℹ 1,599 more rows
## # ℹ 9 more variables: max.5.day.ppt <dbl>, monthly.tmin <dbl>,
## #   monthly.tmax <dbl>, ndays.more.30tmax <dbl>, Hazard <chr>, TotalLoss <dbl>,
## #   TotalLoss_drought <dbl>, TotalLoss_heat <dbl>, TotalLoss_storm <dbl>
…
