The R Language and Tidy Data Examples | Data Analysis and Numerical Methods for Biological Systems Engineers
…
data objects

2.8.4 Vectors

To demonstrate what a vector is let’s load some data!

2.9 Data, tibbles, dataframes

2.9.1 Reading in data

library(readxl)
storm <- read_excel(path = "data/hazards.xlsx", sheet = 2)
storm

## # A tibble: 1,609 × 14
##    Date                County monthly.ppt max.daily.ppt rain.shortage
##    <dttm>               <dbl>       <dbl>         <dbl>         <dbl>
##  1 1981-06-01 00:00:00  24015        4.21         0.826          1.23
##  2 1982-05-01 00:00:00  24015        3.67         2.02           4.06
##  3 1983-04-01 00:00:00  24019        7.03         2.21           2.33
##  4 1983-07-01 00:00:00  24047        1.94         0.915          5.32
##  5 1983-08-01 00:00:00  24015        2.00         0.992          6   
##  6 1984-03-01 00:00:00  51001        6.85         1.77           1.87
##  7 1984-05-01 00:00:00  10005        7.64         2.60           3.81
##  8 1985-09-01 00:00:00  51001        5.73         4.65           4.53
##  9 1988-05-01 00:00:00  10003        6.03         2.12           1.68
## 10 1989-03-01 00:00:00  10003        4.57         1.06           3.23
## # ℹ 1,599 more rows
## # ℹ 9 more variables: max.5.day.ppt <dbl>, monthly.tmin <dbl>,
## #   monthly.tmax <dbl>, ndays.more.30tmax <dbl>, Hazard <chr>, TotalLoss <dbl>,
## #   TotalLoss_drought <dbl>, TotalLoss_heat <dbl>, TotalLoss_storm <dbl>
…
